[gd_scene load_steps=2 format=2]

[ext_resource path="res://src/spawner/spawner.gd" type="Script" id=1]

[node name="spawner" type="Node2D"]
script = ExtResource( 1 )

[node name="platform" type="Timer" parent="."]
process_mode = 1
wait_time = 1.25
one_shot = false
autostart = false

